{
	"name": "Docker Bake with Versions",
	"dockerComposeFile": "docker-compose.yml",
	"service": "devcontainer",
	"workspaceFolder": "/workspaces/primary", // /workspaces/${workspaceFolderBasename}

	// Configure tool-specific properties.
	"customizations": {
		// Configure properties specific to VS Code.
		"vscode": {
			// Set *default* container specific settings.json values on container create.
			"settings": {
				"terminal.integrated.defaultProfile.linux": "bash",
				"yaml.customTags": [
					// This is a customization for gitlab ci to enable yamle object entending
					"!reference sequence"
				]
			},
			
			// Add the IDs of extensions you want installed when the container is created.
			"extensions": [
				"mads-hartmann.bash-ide-vscode",
				"rogalmic.bash-debug",
				"redhat.vscode-yaml",
				"yzhang.markdown-all-in-one",
				"eamodio.gitlens",
				"gitlab.gitlab-workflow",
				"ms-azuretools.vscode-docker"
			]
		}
	},

	// Use 'forwardPorts' to make a list of ports inside the container available locally.
	// "forwardPorts": [],

	// Initialize the system OUTSIDE of the container.
	//TODO: make this work on windows
	"initializeCommand": ".devcontainer/initialize.sh",

	// Use 'postCreateCommand' to run commands after the container is created.
	"postCreateCommand": ".devcontainer/postcreate.sh",

	// Comment out to connect as root instead. More info: https://aka.ms/vscode-remote/containers/non-root.
	"remoteUser": "vscode"
}
